{
  "credit": "Made with Blockbench",
  "texture_size": [
    32,
    32
  ],
  "elements": [
    {
      "from": [
        3,
        3,
        3
      ],
      "to": [
        13,
        13,
        13
      ],
      "faces": {
        "north": {
          "uv": [
            3.5,
            7,
            5.5,
            9
          ],
          "texture": "#0"
        },
        "east": {
          "uv": [
            7,
            3.5,
            9,
            5.5
          ],
          "texture": "#0"
        },
        "south": {
          "uv": [
            6,
            7,
            8,
            9
          ],
          "texture": "#0"
        },
        "west": {
          "uv": [
            8.5,
            6,
            10.5,
            8
          ],
          "texture": "#0"
        },
        "up": {
          "uv": [
            10.5,
            10.5,
            8.5,
            8.5
          ],
          "texture": "#0"
        },
        "down": {
          "uv": [
            5.5,
            9.5,
            3.5,
            11.5
          ],
          "texture": "#0"
        }
      }
    },
    {
      "from": [
        2,
        2,
        2
      ],
      "to": [
        14,
        14,
        14
      ],
      "faces": {
        "north": {
          "uv": [
            0,
            0,
            3,
            3
          ],
          "texture": "#0"
        },
        "east": {
          "uv": [
            0,
            3.5,
            3,
            6.5
          ],
          "texture": "#0"
        },
        "south": {
          "uv": [
            3.5,
            0,
            6.5,
            3
          ],
          "texture": "#0"
        },
        "west": {
          "uv": [
            3.5,
            3.5,
            6.5,
            6.5
          ],
          "texture": "#0"
        },
        "up": {
          "uv": [
            3,
            10,
            0,
            7
          ],
          "texture": "#0"
        },
        "down": {
          "uv": [
            10,
            0,
            7,
            3
          ],
          "texture": "#0"
        }
      }
    }
  ]
}